sentence1	sentence2	gold_label	suggestionRP	suggestionRH	annotator_label	Neutral	Entailment	Contradiction
A young girl in a yellow dress is painting a picture of a flower.	A girl is creating art.	neutral	A young girl in a yellow dress is painting a picture of a flower.	A girl is creating art.	Neutral	tensor(-0.8550)	tensor(4.2690)	tensor(-4.8980)
A group of people in brightly colored costumes standing in a circle.	The group is performing a traditional dance.	entailment	A group of people in brightly colored costumes standing in a circle.	The group is performing a traditional dance.	Contradiction	tensor(4.6668)	tensor(-1.5347)	tensor(-2.0413)
A family of four is taking a selfie on a beach.	A family of four is arguing on a beach while trying to take a selfie.	contradiction	A family of four is taking a selfie on a beach.	A family of four is arguing on a beach while trying to take a selfie.	Contradiction	tensor(3.8339)	tensor(-4.0357)	tensor(1.7155)
A small dog is chasing a squirrel in a park.	There is a dog running in the park.	neutral	A small dog is chasing a squirrel in a park.	There is a dog running in the park.	Neutral	tensor(0.5385)	tensor(3.2984)	tensor(-4.4347)
A family of four is walking on a beach.	There is a family walking on the sand.	neutral	A family of four is walking on a beach.	There is a family walking on the sand.	Neutral	tensor(0.9302)	tensor(3.1363)	tensor(-4.4887)
A group of people are playing a game of volleyball on a beach.	People are enjoying a game on the sand.	neutral	A group of people are playing a game of volleyball on a beach.	People are enjoying a game on the sand.	Neutral	tensor(1.1539)	tensor(3.0778)	tensor(-4.5209)
A group of people are having a picnic on a grassy hill.	A party is enjoying a meal in a park.	neutral	A group of people are having a picnic on a grassy hill.	A party is enjoying a meal in a park.	Neutral	tensor(1.3726)	tensor(2.9488)	tensor(-4.5679)
A woman is sitting in a chair and typing on a laptop.	The woman is working on a computer.	neutral	A woman is sitting in a chair and typing on a laptop.	The woman is working on a computer.	Neutral	tensor(-0.0815)	tensor(3.8103)	tensor(-4.8742)
A woman is playing the violin in a concert hall.	A musician is performing in a theater.	neutral	A woman is playing the violin in a concert hall.	A musician is performing in a theater.	Contradiction	tensor(0.4714)	tensor(3.4912)	tensor(-4.7548)
A group of children are playing tag in a park.	Kids are running around in the open.	neutral	A group of children are playing tag in a park.	Kids are running around in the open.	Neutral	tensor(0.8924)	tensor(3.1414)	tensor(-4.4108)
A woman is in a pool wearing a red swimsuit.	The woman is swimming in the water.	neutral	A woman is in a pool wearing a red swimsuit.	The woman is swimming in the water.	Neutral	tensor(1.2847)	tensor(3.0105)	tensor(-4.4423)
A group of children are playing tag in a grassy park.	Kids are running around in a field.	neutral	A group of children are playing tag in a grassy park.	Kids are running around in a field.	Neutral	tensor(0.4141)	tensor(2.5864)	tensor(-3.2594)
A woman wearing a chef's hat stands in front of a stove.	The woman is cooking.	entailment	A woman wearing a chef's hat stands in front of a stove.	The woman is cooking.	Neutral	tensor(2.2430)	tensor(1.9441)	tensor(-3.9021)
A woman in a lab coat stands in front of a microscope.	The woman is conducting scientific research.	entailment	A woman in a lab coat stands in front of a microscope.	The woman is conducting scientific research.	Neutral	tensor(2.2945)	tensor(2.2972)	tensor(-4.4146)
A woman in a suit is typing on a laptop in a coffee shop.	The woman is working remotely.	entailment	A woman in a suit is typing on a laptop in a coffee shop.	The woman is working remotely.	Entailment	tensor(4.9399)	tensor(-1.8688)	tensor(-1.8935)
A family of four eating dinner together at the kitchen table.	A mother, father, and their two children are eating dinner together.	entailment	A family of four eating dinner together at the kitchen table.	A mother, father, and their two children are eating dinner together.	Entailment	tensor(3.8647)	tensor(1.3637)	tensor(-4.6984)
A dog with a blue collar chasing a ball.	A dog is running after a ball with a blue collar on.	entailment	A dog with a blue collar chasing a ball.	A dog is running after a ball with a blue collar on.	Neutral	tensor(0.1742)	tensor(3.9972)	tensor(-5.3434)
A group of hikers trekking up a mountain.	A mountain is nearby.	entailment	A group of hikers trekking up a mountain.	A mountain is nearby.	Entailment	tensor(3.6748)	tensor(-1.5734)	tensor(-0.7317)
A group of teenagers huddled around a campfire.	Fire is nearby.	entailment	A group of teenagers huddled around a campfire.	Fire is nearby.	Entailment	tensor(3.7593)	tensor(0.3889)	tensor(-3.2183)
A family of ducks swimming in a pond.	Water is nearby.	entailment	A family of ducks swimming in a pond.	Water is nearby.	Entailment	tensor(3.5163)	tensor(0.2897)	tensor(-2.8054)
A group of hikers gathering around a map at the trailhead.	A trail is nearby.	entailment	A group of hikers gathering around a map at the trailhead.	A trail is nearby.	Entailment	tensor(3.7469)	tensor(0.2857)	tensor(-3.1434)
A group of children with snowballs in their hands are running around the park.	The children are playing in the park.	entailment	A group of children with snowballs in their hands are running around the park.	The children are playing in the park.	Neutral	tensor(0.6419)	tensor(2.4211)	tensor(-3.2901)
A family of four walking in a park.	People are outside enjoying the scenery.	neutral	A family of four walking in a park.	People are outside enjoying the scenery.	Neutral	tensor(2.7599)	tensor(2.3700)	tensor(-5.0914)
A child is riding a bike on the sidewalk.	boy rides a bicycle on the pavement.	entailment	A child is riding a bike on the sidewalk.	boy rides a bicycle on the pavement.	Neutral	tensor(0.9455)	tensor(2.9749)	tensor(-4.1986)
A child is riding a bike down a street.	a boy rides a bicycle on the road.	entailment	A child is riding a bike down a street.	a boy rides a bicycle on the road.	Entailment	tensor(2.8346)	tensor(1.8244)	tensor(-4.3366)
A person is riding a bicycle on a dirt path.	a man cycles on a trail.	entailment	A person is riding a bicycle on a dirt path.	a man cycles on a trail.	Entailment	tensor(2.1272)	tensor(2.0898)	tensor(-3.9717)
A young girl in a pink dress stands in front of a white picket fence.	A girl is leaning against a white picket fence.	entailment	A young girl in a pink dress stands in front of a white picket fence.	A girl is leaning against a white picket fence.	Contradiction	tensor(3.1997)	tensor(-0.6202)	tensor(-1.6206)
A woman in a white dress stands on a beach, while the waves crash around her.	A woman is standing in the ocean.	entailment	A woman in a white dress stands on a beach, while the waves crash around her.	A woman is standing in the ocean.	Contradiction	tensor(0.3928)	tensor(1.7367)	tensor(-2.1432)
A woman in a white dress and veil stands at the altar.	A woman is getting married.	entailment	A woman in a white dress and veil stands at the altar.	A woman is getting married.	Entailment	tensor(3.1294)	tensor(1.5443)	tensor(-4.2515)
A young girl in a pink dress twirls in a meadow of wildflowers.	A girl is dancing in a meadow of wildflowers.	entailment	A young girl in a pink dress twirls in a meadow of wildflowers.	A girl is dancing in a meadow of wildflowers.	Neutral	tensor(1.6222)	tensor(2.1320)	tensor(-3.6234)
A woman wearing a chef's hat and apron cooking in a kitchen.	She is a chef.	entailment	A woman wearing a chef's hat and apron cooking in a kitchen.	She is a chef.	Entailment	tensor(2.7662)	tensor(1.8501)	tensor(-4.2210)
A woman playing a piano and singing in a recording studio.	She is recording a song.	entailment	A woman playing a piano and singing in a recording studio.	She is recording a song.	Neutral	tensor(3.0239)	tensor(1.7571)	tensor(-4.4497)
A group of people on a beach are playing volleyball.	A group of friends are running away from their troubles.	neutral	A group of people on a beach are playing volleyball.	A group of friends are running away from their troubles.	Neutral	tensor(-1.5849)	tensor(-4.4165)	tensor(6.4546)
A group of children playing in a park.	The kids are running away from their parents.	neutral	A group of children playing in a park.	The kids are running away from their parents.	Contradiction	tensor(2.2722)	tensor(-4.1956)	tensor(3.3548)
A woman and her son playing in a park.	The mother and son are running away from their abusive father.	neutral	A woman and her son playing in a park.	The mother and son are running away from their abusive father.	Neutral	tensor(3.3292)	tensor(-3.9619)	tensor(2.1577)
A dog is running around a park chasing a ball.	A cat was there.	contradiction	A dog is running around a park chasing a ball.	A cat was there.	Neutral	tensor(-3.9578)	tensor(1.4317)	tensor(1.2111)
A family taking a picture in front of a castle.	the castle was burning.	contradiction	A family taking a picture in front of a castle.	the castle was burning.	Neutral	tensor(-3.0854)	tensor(-3.4886)	tensor(6.6209)
A woman in a lab coat holding a clipboard while looking at a computer screen.	A woman is studying a computer.	neutral	A woman in a lab coat holding a clipboard while looking at a computer screen.	A woman is studying a computer.	Neutral	tensor(1.1416)	tensor(2.3228)	tensor(-3.4374)
A woman is helping a young girl to tie her shoe.	A woman is teaching a girl how to tie her shoe.	neutral	A woman is helping a young girl to tie her shoe.	A woman is teaching a girl how to tie her shoe.	Neutral	tensor(3.1234)	tensor(2.1362)	tensor(-4.9689)
A woman with a clipboard talking to a group of children.	The woman is instructing the children.	neutral	A woman with a clipboard talking to a group of children.	The woman is instructing the children.	Neutral	tensor(1.8827)	tensor(2.8954)	tensor(-4.7976)
A group of people wearing hard hats standing around a construction site.	People are inspecting a construction site.	neutral	A group of people wearing hard hats standing around a construction site.	People are inspecting a construction site.	Neutral	tensor(3.5237)	tensor(1.4184)	tensor(-4.3720)
A woman in a white dress, sitting on a bench in a park	A woman relaxes in a park.	neutral	A woman in a white dress, sitting on a bench in a park	A woman relaxes in a park.	Neutral	tensor(2.0539)	tensor(2.5848)	tensor(-4.6052)
A group of people playing a game of chess.	A group of people are sitting around a table.	contradiction	A group of people playing a game of chess.	A group of people are sitting around a table.	Neutral	tensor(2.0384)	tensor(2.4813)	tensor(-4.5203)
A man is swinging a golf club.	A man is playing golf.	neutral	A man is swinging a golf club.	A man is playing golf.	Neutral	tensor(1.7685)	tensor(2.5693)	tensor(-4.3454)
A skateboarder is grinding a rail.	The skateboarder is performing a trick on the rail.	neutral	A skateboarder is grinding a rail.	The skateboarder is performing a trick on the rail.	Entailment	tensor(0.3787)	tensor(3.7774)	tensor(-4.9913)
A woman in a swimsuit with a snorkel and mask.	The woman is snorkeling.	entailment	A woman in a swimsuit with a snorkel and mask.	The woman is snorkeling.	Neutral	tensor(2.5112)	tensor(2.1183)	tensor(-4.3427)
Two people, one with a camera and the other with a map, looking up at a building.	The two people are exploring the building.	neutral	Two people, one with a camera and the other with a map, looking up at a building.	The two people are exploring the building.	Contradiction	tensor(3.7516)	tensor(0.9481)	tensor(-4.0743)
A woman is standing in a field with a large bundle of hay on her back.	The woman is carrying hay from the field.	entailment	A woman is standing in a field with a large bundle of hay on her back.	The woman is carrying hay from the field.	Neutral	tensor(0.7778)	tensor(2.8269)	tensor(-3.7990)
A woman is sitting in a chair surrounded by a large group of people.	The woman is the center of attention.	entailment	A woman is sitting in a chair surrounded by a large group of people.	The woman is the center of attention.	Neutral	tensor(0.2271)	tensor(3.8090)	tensor(-4.8370)
A woman in a red dress is dancing in the middle of a crowd of people.	The woman is performing for the audience.	entailment	A woman in a red dress is dancing in the middle of a crowd of people.	The woman is performing for the audience.	Neutral	tensor(1.0892)	tensor(3.0204)	tensor(-4.4133)
A woman in a red dress dancing with a man in a suit.	the music was quiet.	contradiction	A woman in a red dress dancing with a man in a suit.	the music was quiet.	Neutral	tensor(4.7110)	tensor(-1.8471)	tensor(-1.7321)
A group of people walking through a sunflower field.	the sky was cloudy.	contradiction	A group of people walking through a sunflower field.	the sky was cloudy.	Neutral	tensor(0.1789)	tensor(-3.0508)	tensor(3.8406)
A woman in a red dress stands in front of a lake with a fishing rod in her hand and some food in the other.	She is taking a picture.	entailment	A woman in a red dress stands in front of a lake with a fishing rod in her hand and some food in the other.	She is taking a picture.	Contradiction	tensor(0.5111)	tensor(-3.3319)	tensor(3.8672)
A man and woman walk hand in hand through a park.	a bird was on rocks	contradiction	A man and woman walk hand in hand through a park.	a bird was on rocks	Neutral	tensor(-2.3524)	tensor(2.7338)	tensor(-1.4903)
A young girl playing with a blue beach ball in the ocean.	A girl is running along the beach, splashing in the waves.	neutral	A young girl playing with a blue beach ball in the ocean.	A girl is running along the beach, splashing in the waves.	Contradiction	tensor(3.6769)	tensor(-3.1326)	tensor(0.8816)
A child in a blue and white striped shirt blowing bubbles in the park.	A child runs around the park chasing the bubbles.	neutral	A child in a blue and white striped shirt blowing bubbles in the park.	A child runs around the park chasing the bubbles.	Contradiction	tensor(4.3381)	tensor(-3.7386)	tensor(0.6555)
A woman in a green dress and a man in a white shirt.	A couple.	neutral	A woman in a green dress and a man in a white shirt.	A couple.	Neutral	tensor(3.0081)	tensor(1.1611)	tensor(-3.5575)
A group of children playing in a park with a playground.	A playground is nearby.	entailment	A group of children playing in a park with a playground.	A playground is nearby.	Entailment	tensor(4.1904)	tensor(-1.0196)	tensor(-1.9907)
A group of children playing tag around a tall tree.	The tree is nearby.	entailment	A group of children playing tag around a tall tree.	The tree is nearby.	Entailment	tensor(3.2623)	tensor(0.3425)	tensor(-2.7162)
A group of children playing in a park near a lake.	Water is nearby.	entailment	A group of children playing in a park near a lake.	Water is nearby.	Entailment	tensor(2.6553)	tensor(1.5716)	tensor(-3.6214)
A family of four is gathered around a picnic table.	The table is nearby.	entailment	A family of four is gathered around a picnic table.	The table is nearby.	Entailment	tensor(3.1741)	tensor(1.1020)	tensor(-3.5848)
A family is unpacking a picnic basket in a park.	The family is getting ready to have a picnic in the park.	entailment	A family is unpacking a picnic basket in a park.	The family is getting ready to have a picnic in the park.	Entailment	tensor(1.7539)	tensor(2.7210)	tensor(-4.6001)
A group of people are standing in a circle with their hands in the air.	The group of people are celebrating together.	entailment	A group of people are standing in a circle with their hands in the air.	The group of people are celebrating together.	Neutral	tensor(2.2890)	tensor(2.5277)	tensor(-4.7570)
A family is unpacking their suitcases in a hotel room.	The family is staying in the hotel for the night.	entailment	A family is unpacking their suitcases in a hotel room.	The family is staying in the hotel for the night.	Entailment	tensor(5.3355)	tensor(-0.5616)	tensor(-4.0012)
A family of five eating dinner together at the kitchen table.	The family is arguing.	contradiction	A family of five eating dinner together at the kitchen table.	The family is arguing.	Neutral	tensor(1.6909)	tensor(-4.3353)	tensor(3.9444)
A group of hikers walking up a mountain path.	A group of skiers skiing down the mountain path.	contradiction	A group of hikers walking up a mountain path.	A group of skiers skiing down the mountain path.	Neutral	tensor(-2.8715)	tensor(-3.9162)	tensor(7.1068)
A couple walking hand in hand through a park.	The couple is arguing.	contradiction	A couple walking hand in hand through a park.	The couple is arguing.	Neutral	tensor(-2.6029)	tensor(-3.4569)	tensor(6.2078)
A family of four eating dinner at a restaurant.	The family is dining outside.	contradiction	A family of four eating dinner at a restaurant.	The family is dining outside.	Neutral	tensor(1.3565)	tensor(-2.3378)	tensor(2.0136)
A group of friends laughing and talking around a campfire.	Everyone is in tears.	contradiction	A group of friends laughing and talking around a campfire.	Everyone is in tears.	Neutral	tensor(-2.9759)	tensor(-3.7396)	tensor(6.9161)
A family of four laughing together at the dinner table.	The family is in tears.	contradiction	A family of four laughing together at the dinner table.	The family is in tears.	Neutral	tensor(-2.7202)	tensor(-3.7544)	tensor(6.6625)
The couple walking hand in hand in the park.	A man and a woman walking together in the park, holding hands.	entailment	The couple walking hand in hand in the park.	A man and a woman walking together in the park, holding hands.	Neutral	tensor(2.1018)	tensor(2.7536)	tensor(-4.9084)
A woman is running on a dirt path in the woods.	A woman running on a dirt path through a forest, with trees and foliage all around her.	entailment	A woman is running on a dirt path in the woods.	A woman running on a dirt path through a forest, with trees and foliage all around her.	Neutral	tensor(0.8882)	tensor(3.6850)	tensor(-5.3618)
A woman is sitting in a park with a book in her hands.	A woman reading a book in a park, surrounded by nature.	entailment	A woman is sitting in a park with a book in her hands.	A woman reading a book in a park, surrounded by nature.	Neutral	tensor(1.0411)	tensor(3.5878)	tensor(-5.2623)
A woman is standing in a garden with a watering can.	A woman tending to her garden with a watering can in her hand.	entailment	A woman is standing in a garden with a watering can.	A woman tending to her garden with a watering can in her hand.	Neutral	tensor(1.2863)	tensor(3.1839)	tensor(-4.7880)
Woman with a suitcase walking through an airport.	A woman walking through an airport carrying a suitcase in her hand.	entailment	Woman with a suitcase walking through an airport.	A woman walking through an airport carrying a suitcase in her hand.	Neutral	tensor(0.7412)	tensor(3.2876)	tensor(-4.4782)
A group of people dancing around a bonfire.	A group of people are having a campfire party.	entailment	A group of people dancing around a bonfire.	A group of people are having a campfire party.	Contradiction	tensor(3.8755)	tensor(1.2325)	tensor(-4.5938)
A man and woman holding hands while walking down a beach.	A couple strolls along the beach while embracing each other.	neutral	A man and woman holding hands while walking down a beach.	A couple strolls along the beach while embracing each other.	Contradiction	tensor(1.1270)	tensor(3.3884)	tensor(-4.9388)
A group of children are playing a game of tag in a park.	The children are running around to find the hidden treasure.	neutral	A group of children are playing a game of tag in a park.	The children are running around to find the hidden treasure.	Contradiction	tensor(1.0140)	tensor(-3.6027)	tensor(3.8759)
A group of children playing in a park with a large playground.	The children are building a treehouse.	neutral	A group of children playing in a park with a large playground.	The children are building a treehouse.	Contradiction	tensor(2.8256)	tensor(-3.8610)	tensor(2.5072)
Two people discussing the details of a contract.	The two people are negotiating an agreement.	entailment	Two people discussing the details of a contract.	The two people are negotiating an agreement.	Neutral	tensor(-0.6011)	tensor(4.0603)	tensor(-4.9358)
Two children are playing a game of tag in the park.	Two kids competing to be the one who is 'it'.	entailment	Two children are playing a game of tag in the park.	Two kids competing to be the one who is 'it'.	Entailment	tensor(5.6996)	tensor(-2.7402)	tensor(-1.8998)
Two children playing a game of tag in the park.	Two kids competing to avoid being tagged.	entailment	Two children playing a game of tag in the park.	Two kids competing to avoid being tagged.	Entailment	tensor(4.2485)	tensor(0.3318)	tensor(-3.7062)
A group of people standing in a circle around a campfire.	Flames are nearby.	entailment	A group of people standing in a circle around a campfire.	Flames are nearby.	Entailment	tensor(1.4504)	tensor(3.0740)	tensor(-4.5349)
A boy in a yellow shirt is playing catch with a yellow ball.	Someone else is nearby.	entailment	A boy in a yellow shirt is playing catch with a yellow ball.	Someone else is nearby.	Entailment	tensor(4.7251)	tensor(-0.7719)	tensor(-2.8166)
A group of children are standing around a yellow fire hydrant.	The hydrant is nearby.	entailment	A group of children are standing around a yellow fire hydrant.	The hydrant is nearby.	Entailment	tensor(3.0693)	tensor(1.0515)	tensor(-3.3917)
A woman is riding a bicycle down a city street.	The woman is pedaling along the sidewalk.	neutral	A woman is riding a bicycle down a city street.	The woman is pedaling along the sidewalk.	Entailment	tensor(1.6821)	tensor(-0.9481)	tensor(0.1241)
A woman is using a laptop on a park bench.	The woman is typing on her computer.	neutral	A woman is using a laptop on a park bench.	The woman is typing on her computer.	Neutral	tensor(1.6433)	tensor(2.6805)	tensor(-4.2672)
A woman in a red dress is walking through a park.	The woman is strolling through the gardens.	neutral	A woman in a red dress is walking through a park.	The woman is strolling through the gardens.	Contradiction	tensor(2.0938)	tensor(-0.0278)	tensor(-1.3497)
A man in a suit and tie shaking hands with a woman in a business suit.	The two people are making a professional connection.	neutral	A man in a suit and tie shaking hands with a woman in a business suit.	The two people are making a professional connection.	Neutral	tensor(1.5571)	tensor(3.1479)	tensor(-4.9622)
A group of people in a meeting room discussing a project.	The people are collaborating on the project.	neutral	A group of people in a meeting room discussing a project.	The people are collaborating on the project.	Neutral	tensor(2.5174)	tensor(2.2988)	tensor(-4.7311)
A person in a wheelchair with a helmet and a skateboard on their lap.	The person is cautious.	neutral	A person in a wheelchair with a helmet and a skateboard on their lap.	The person is cautious.	Neutral	tensor(1.2489)	tensor(3.2192)	tensor(-4.6866)
A woman in a yellow dress poses on a beach.	A woman is standing on the beach.	neutral	A woman in a yellow dress poses on a beach.	A woman is standing on the beach.	Neutral	tensor(1.4026)	tensor(2.8002)	tensor(-4.3707)
A woman walking her two dogs in the park.	A woman has two dogs.	neutral	A woman walking her two dogs in the park.	A woman has two dogs.	Neutral	tensor(-0.7546)	tensor(4.1588)	tensor(-5.0201)
A person is holding a book and a pen, standing in front of a chalkboard.	A student is sitting in a lecture hall listening to a professor.	contradiction	A person is holding a book and a pen, standing in front of a chalkboard.	A student is sitting in a lecture hall listening to a professor.	Neutral	tensor(-0.7544)	tensor(-2.7030)	tensor(4.3164)
A group of children playing tag in a park.	A group of children are running around in the park.	neutral	People intermediately holding instruments on stage.	There are musicians on stage.	Neutral	tensor(0.1072)	tensor(3.8598)	tensor(-5.0385)
A group of children playing tag in a park.	A group of children are running around in the park.	neutral	A person opens their laptop in their kitchen and makes a coffee.	The person is getting ready to work.	Neutral	tensor(2.7345)	tensor(1.8013)	tensor(-4.1421)
A woman in a yellow dress and a man in a blue suit walking together.	A couple is strolling.	neutral	A woman in a yellow dress and a man in a blue suit walking together.	A couple is strolling.	Neutral	tensor(1.7275)	tensor(2.5026)	tensor(-4.1808)
